^C:\USERS\HUGH\DOCUMENTS\VISUAL STUDIO 2010\PROJECTS\FIXED STATS\FIXED STATS\DEBUG\FIXED STATS.EXE.EMBED.MANIFEST.RES|C:\USERS\HUGH\DOCUMENTS\VISUAL STUDIO 2010\PROJECTS\FIXED STATS\FIXED STATS\DEBUG\FIXED STATS.OBJ
/ERRORREPORT:PROMPT /OUT:"c:\users\hugh\documents\visual studio 2010\Projects\fixed stats\Debug\fixed stats.exe" /INCREMENTAL /NOLOGO kernel32.lib user32.lib gdi32.lib winspool.lib comdlg32.lib advapi32.lib shell32.lib ole32.lib oleaut32.lib uuid.lib odbc32.lib odbccp32.lib /MANIFEST /ManifestFile:"Debug\fixed stats.exe.intermediate.manifest" /MANIFESTUAC:"level='asInvoker' uiAccess='false'" /DEBUG /PDB:"c:\users\hugh\documents\visual studio 2010\Projects\fixed stats\Debug\fixed stats.pdb" /SUBSYSTEM:CONSOLE /TLBID:1 /DYNAMICBASE /NXCOMPAT /IMPLIB:"c:\users\hugh\documents\visual studio 2010\Projects\fixed stats\Debug\fixed stats.lib" /MACHINE:X86 "Debug\fixed stats.exe.embed.manifest.res"
"Debug\fixed stats.obj"
