^C:\USERS\HUGH\DOCUMENTS\VISUAL STUDIO 2010\PROJECTS\MY_STRING_LINK\MY_STRING_LINK\DEBUG\MY_STRING_LINK.EXE.EMBED.MANIFEST.RES|C:\USERS\HUGH\DOCUMENTS\VISUAL STUDIO 2010\PROJECTS\MY_STRING_LINK\MY_STRING_LINK\DEBUG\MY_STRING_LIST.OBJ|C:\USERS\HUGH\DOCUMENTS\VISUAL STUDIO 2010\PROJECTS\MY_STRING_LINK\MY_STRING_LINK\DEBUG\STRING_LIST_DRIVER.OBJ
/ERRORREPORT:PROMPT /OUT:"C:\Users\Hugh\Documents\Visual Studio 2010\Projects\My_String_Link\Debug\My_String_Link.exe" /INCREMENTAL /NOLOGO kernel32.lib user32.lib gdi32.lib winspool.lib comdlg32.lib advapi32.lib shell32.lib ole32.lib oleaut32.lib uuid.lib odbc32.lib odbccp32.lib /MANIFEST /ManifestFile:"Debug\My_String_Link.exe.intermediate.manifest" /MANIFESTUAC:"level='asInvoker' uiAccess='false'" /DEBUG /PDB:"C:\Users\Hugh\Documents\Visual Studio 2010\Projects\My_String_Link\Debug\My_String_Link.pdb" /SUBSYSTEM:CONSOLE /TLBID:1 /DYNAMICBASE /NXCOMPAT /IMPLIB:"C:\Users\Hugh\Documents\Visual Studio 2010\Projects\My_String_Link\Debug\My_String_Link.lib" /MACHINE:X86 Debug\My_String_Link.exe.embed.manifest.res
Debug\My_String_List.obj
Debug\string_list_driver.obj
